メタ分析
…
推定結果

結果を簡単に確認します。

fit_fixed_mcmc$summary()

## # A tibble: 37 × 10
##    variable      mean    median    sd   mad        q5        q95  rhat ess_bulk
##    <chr>        <dbl>     <dbl> <dbl> <dbl>     <dbl>      <dbl> <dbl>    <dbl>
##  1 lp__     -1163.    -1163.    2.46  2.37  -1168.    -1160.      1.00    8787.
##  2 d01         -0.233    -0.233 0.119 0.120    -0.427    -0.0375  1.00   21792.
##  3 mu[1]       -3.30     -3.26  0.535 0.522    -4.24     -2.48    1.00   36729.
##  4 mu[2]       -2.53     -2.52  0.297 0.291    -3.04     -2.06    1.00   32652.
##  5 mu[3]       -2.59     -2.59  0.133 0.134    -2.82     -2.38    1.00   33102.
##  6 mu[4]       -2.58     -2.56  0.341 0.333    -3.17     -2.05    1.00   39300.
##  7 mu[5]       -2.75     -2.73  0.377 0.370    -3.41     -2.17    1.00   38113.
##  8 mu[6]       -3.15     -3.12  0.485 0.476    -4.01     -2.41    1.00   36256.
##  9 mu[7]       -2.92     -2.92  0.171 0.171    -3.21     -2.65    1.00   35735.
## 10 mu[8]       -2.47     -2.47  0.113 0.113    -2.66     -2.29    1.00   30578.
## # … with 27 more rows, and 1 more variable: ess_tail <dbl>
…
