jsPsychをfirebaseで動かそう
…
## # A tibble: 3 x 2
##   ID                          data               
##   <chr>                       <list>             
## 1 2019_8_22_23_48_59_fxlmh9SL <df[,10] [19 × 10]>
## 2 2019_8_22_23_56_32_juStKRbZ <df[,10] [19 × 10]>
## 3 2019_8_22_23_57_16_8EygxO3q <df[,10] [19 × 10]>

各参加者にdata.frameがネストしちゃっているので，unnestします。これで，とりあえず解析データセットが完成しました。

db_df3 <-unnest(db_df2)
db_df3

## # A tibble: 57 x 11
##    ID    internal_node_id key_press     rt stimulus time_elapsed
##    <chr> <chr>                <int>  <dbl> <chr>           <int>
##  1 2019… 0.0-0.0                 13 3.90e5 <p><spa…       390012
##  2 2019… 0.0-1.0                 68 7.18e3 <p styl…       397196
##  3 2019… 0.0-2.0-0.0             68 7.06e2 <p styl…       398906
##  4 2019… 0.0-2.0-0.1             68 8.16e2 <p styl…       401142
##  5 2019… 0.0-2.0-0.2             75 1.12e3 <p styl…       404260
##  6 2019… 0.0-2.0-0.3             68 8.34e2 <p styl…       406947
##  7 2019… 0.0-2.0-0.4             74 1.06e3 <p styl…       408927
##  8 2019… 0.0-2.0-0.5             74 1.15e3 <p styl…       411447
##  9 2019… 0.0-2.0-0.6             75 7.51e2 <p styl…       412857
## 10 2019… 0.0-2.0-0.7             70 8.04e2 <p styl…       414985
## # … with 47 more rows, and 5 more variables: trial_index <int>,
## #   trial_type <chr>, correct <lgl>, response <chr>, stim_type <chr>

上記の操作＋整形作業すると，以下のコードになります。

db_df <- db_list %>% 
  as_tibble(validate = F) %>%  #データフレーム化
  gather(ID, data) %>% 　　　　#ロング化
  unnest() %>% 　　　　　　　　#ネストやめる
  select(ID,trial_index,stim_type,response,correct,rt) %>%　#使う変数選択 
  filter(trial_index !=0) %>%　#ウェルカムメッセージは不要 
  filter(trial_index !=1) %>%  #教示は不要
  filter(trial_index !=19)     #最後の教示も不要

db_df

## # A tibble: 51 x 6
##    ID                         trial_index stim_type  response correct    rt
##    <chr>                            <int> <chr>      <chr>    <lgl>   <dbl>
##  1 2019_8_22_23_48_59_fxlmh9…           2 congruent  d        TRUE     706.
##  2 2019_8_22_23_48_59_fxlmh9…           3 congruent  d        TRUE     816.
##  3 2019_8_22_23_48_59_fxlmh9…           4 incongrue… k        TRUE    1119.
##  4 2019_8_22_23_48_59_fxlmh9…           5 congruent  d        TRUE     834.
##  5 2019_8_22_23_48_59_fxlmh9…           6 incongrue… j        TRUE    1056.
##  6 2019_8_22_23_48_59_fxlmh9…           7 incongrue… j        TRUE    1151.
##  7 2019_8_22_23_48_59_fxlmh9…           8 incongrue… k        TRUE     751.
##  8 2019_8_22_23_48_59_fxlmh9…           9 incongrue… f        TRUE     804.
##  9 2019_8_22_23_48_59_fxlmh9…          10 congruent  d        TRUE     768.
## 10 2019_8_22_23_48_59_fxlmh9…          11 incongrue… j        TRUE    1206.
## # … with 41 more rows
…
