hBayesDMでお手軽にベイジアン認知モデリングをやってみよう！
…
遅延割引課題では，割引率(k)を推定するために，「今日の1000円」と「明日の1100円」のどちらを選ぶかといった選択を何度もしてもらいます。これらの選択肢に対する個人の反応（行動データ）から，kを推定します。なお，kの推定にあたり，選択肢の価値にどのくらい従った反応をするのかにかかわる逆温度（β）パラメータも推定します。このように，認知モデリングでは，時点の異なる選択肢における個人の選択行動の背景にあるプロセスを推定します。

データの準備

さて，遅延割引のHyperbolic modelについての理解が深まったところで，早速推定をしていきましょう！hBayesDMは，複雑なStanコードを書かなくても階層化されたベイジアン認知モデリングをやってくれるのですが，それはある程度，型にはまった形式のデータをセットを使うことで実現されています。

「hBayesDM Getting Started」の「How to use hBayesDM」の「1. Prepare the data」にある「here」というリンクをクリックするとサンプルデータセットを入手できます。今回は，そのサンプルデータセットの中の遅延割引に関するdd_exampleData.txtを用います。では，さっそく，読み込んでみましょう。

(data <- read_tsv("dd_exampleData.txt"))

## # A tibble: 2,160 x 7
##    subjID trial delay_later amount_later delay_sooner amount_sooner choice
##     <dbl> <dbl>       <dbl>        <dbl>        <dbl>         <dbl>  <dbl>
##  1      1     1           6         10.5            0            10      1
##  2      1     2         170         38.3            0            10      1
##  3      1     3          28         13.4            0            10      1
##  4      1     4          28         31.4            0            10      1
##  5      1     5          85         30.9            0            10      1
##  6      1     6          28         21.1            0            10      1
##  7      1     7          28         13              0            10      1
##  8      1     8           1         21.3            0            10      1
##  9      1     9          28         21.1            0            10      1
## 10      1    10          15         30.1            0            10      1
## # … with 2,150 more rows
…
rhat(output)

## # A tibble: 65 x 1
##     Rhat
##    <dbl>
##  1 0.999
##  2 1.00 
##  3 1.00 
##  4 1.01 
##  5 0.999
##  6 0.999
##  7 1.00 
##  8 1.00 
##  9 0.999
## 10 0.998
## # … with 55 more rows
…
