強化学習モデル: 最尤推定
…
sub01 <- read_csv("data/sub01.csv")

## Rows: 325 Columns: 13
## ── Column specification ────────────────────────────────────────────────────────
## Delimiter: ","
## chr (5): trial_type, internal_node_id, rt, stimulus, key_press
## dbl (7): trial_index, time_elapsed, button_pressed, left_right_s1, left_righ...
## lgl (1): success
## 
## ℹ Use `spec()` to retrieve the full column specification for this data.
## ℹ Specify the column types or set `show_col_types = FALSE` to quiet this message.

sub01

## # A tibble: 325 × 13
##    trial_type trial_index time_elapsed internal_node_id rt    stimulus key_press
##    <chr>            <dbl>        <dbl> <chr>            <chr> <chr>    <chr>    
##  1 pavlovia             0            3 0.0-0.0          <NA>   <NA>    <NA>     
##  2 html-keyb…           1        39995 0.0-1.0          3999… "<p><sp… 32       
##  3 fullscreen           2        44140 0.0-2.0          <NA>   <NA>    <NA>     
##  4 html-keyb…           3        48023 0.0-3.0          3882… "<p sty… 32       
##  5 html-butt…           4        49837 0.0-4.0-0.0      812.…  <NA>    <NA>     
##  6 html-keyb…           5        50340 0.0-4.0-1.0      null  "<p sty… null     
##  7 html-keyb…           6        51345 0.0-4.0-2.0      null  "<p sty… null     
##  8 html-keyb…           7        52069 0.0-4.0-3.0      null  "<p sty… null     
##  9 html-butt…           8        52833 0.0-4.0-0.1      762.…  <NA>    <NA>     
## 10 html-keyb…           9        53335 0.0-4.0-1.1      null  "<p sty… null     
## # … with 315 more rows, and 6 more variables: success <lgl>,
## #   button_pressed <dbl>, left_right_s1 <dbl>, left_right_s2 <dbl>,
## #   reward_s1 <dbl>, reward_s2 <dbl>

教示とか刺激が出た時(trial_typeがhtml-keyboard-response)やpavloviaの関数(trial_typeがpavlovia)は邪魔なので除外する（このデータはpavloviaで収集されました）。

sub01 %>% 
    filter(trial_type == "html-button-response")

## # A tibble: 80 × 13
##    trial_type trial_index time_elapsed internal_node_id rt    stimulus key_press
##    <chr>            <dbl>        <dbl> <chr>            <chr> <chr>    <chr>    
##  1 html-butt…           4        49837 0.0-4.0-0.0      812.… <NA>     <NA>     
##  2 html-butt…           8        52833 0.0-4.0-0.1      762.… <NA>     <NA>     
##  3 html-butt…          12        55853 0.0-4.0-0.2      489.… <NA>     <NA>     
##  4 html-butt…          16        59331 0.0-4.0-0.3      1375… <NA>     <NA>     
##  5 html-butt…          20        63031 0.0-4.0-0.4      1011… <NA>     <NA>     
##  6 html-butt…          24        66559 0.0-4.0-0.5      928.… <NA>     <NA>     
##  7 html-butt…          28        70521 0.0-4.0-0.6      1152… <NA>     <NA>     
##  8 html-butt…          32        73915 0.0-4.0-0.7      756.… <NA>     <NA>     
##  9 html-butt…          36        77303 0.0-4.0-0.8      1195… <NA>     <NA>     
## 10 html-butt…          40        80805 0.0-4.0-0.9      1268… <NA>     <NA>     
## # … with 70 more rows, and 6 more variables: success <lgl>,
## #   button_pressed <dbl>, left_right_s1 <dbl>, left_right_s2 <dbl>,
## #   reward_s1 <dbl>, reward_s2 <dbl>

まず，tiral番号を追加する。次に，s1の報酬確率を追加する(前半40試行は0.8,後半40試行は0.2)。選択に応じたフィードバックを追加する。必要な列だけ選択する。button_pressedはchoiceって名前にする。

sub01 %>% 
    filter(trial_type == "html-button-response") %>% 
  mutate(trial = 1:80, 
         s1_prob = rep(c(0.8,0.2),each = 40),
         reward = ifelse(button_pressed == 0, reward_s1, reward_s2)) %>% 
  select(trial,choice=button_pressed, rt, reward, s1_prob,reward_s1, reward_s2)

## # A tibble: 80 × 7
##    trial choice rt                 reward s1_prob reward_s1 reward_s2
##    <int>  <dbl> <chr>               <dbl>   <dbl>     <dbl>     <dbl>
##  1     1      0 812.3649999979534       1     0.8         1         0
##  2     2      0 762.6200000013341       1     0.8         1         1
##  3     3      0 489.58000000129687      1     0.8         1         1
##  4     4      0 1375.0050000016927      1     0.8         1         0
##  5     5      0 1011.4749999993364      1     0.8         1         0
##  6     6      0 928.5450000024866       1     0.8         1         0
##  7     7      0 1152.509999999893       1     0.8         1         0
##  8     8      0 756.2650000036228       1     0.8         1         0
##  9     9      0 1195.609999995213       0     0.8         0         0
## 10    10      0 1268.1650000013178      0     0.8         0         0
## # … with 70 more rows

いい感じなので，これでsub01として上書きする。

sub01 <- sub01 %>% 
    filter(trial_type == "html-button-response") %>% 
  mutate(trial = 1:80, 
         s1_prob = rep(c(0.2,0.8),each = 40),
         reward = ifelse(button_pressed == 0, reward_s1, reward_s2)) %>% 
  select(trial,choice=button_pressed, rt, reward, s1_prob,reward_s1, reward_s2)
sub01

## # A tibble: 80 × 7
##    trial choice rt                 reward s1_prob reward_s1 reward_s2
##    <int>  <dbl> <chr>               <dbl>   <dbl>     <dbl>     <dbl>
##  1     1      0 812.3649999979534       1     0.2         1         0
##  2     2      0 762.6200000013341       1     0.2         1         1
##  3     3      0 489.58000000129687      1     0.2         1         1
##  4     4      0 1375.0050000016927      1     0.2         1         0
##  5     5      0 1011.4749999993364      1     0.2         1         0
##  6     6      0 928.5450000024866       1     0.2         1         0
##  7     7      0 1152.509999999893       1     0.2         1         0
##  8     8      0 756.2650000036228       1     0.2         1         0
##  9     9      0 1195.609999995213       0     0.2         0         0
## 10    10      0 1268.1650000013178      0     0.2         0         0
## # … with 70 more rows
…
