認知課題の解析データセット作成
…
## # A tibble: 3 x 2
##   ID                          data               
##   <chr>                       <list>             
## 1 2019_8_22_23_48_59_fxlmh9SL <df[,10] [19 × 10]>
## 2 2019_8_22_23_56_32_juStKRbZ <df[,10] [19 × 10]>
## 3 2019_8_22_23_57_16_8EygxO3q <df[,10] [19 × 10]>

gatherでいい感じになってきましたが，各参加者のdataは，値ではなくてdata.frameがネストしちゃっているので，unnestします。これで，とりあえず解析データセットが完成しました。

db_df3 <-unnest(db_df2)
db_df3

## # A tibble: 57 x 11
##    ID    internal_node_id key_press     rt stimulus time_elapsed
##    <chr> <chr>                <int>  <dbl> <chr>           <int>
##  1 2019… 0.0-0.0                 13 3.90e5 <p><spa…       390012
##  2 2019… 0.0-1.0                 68 7.18e3 <p styl…       397196
##  3 2019… 0.0-2.0-0.0             68 7.06e2 <p styl…       398906
##  4 2019… 0.0-2.0-0.1             68 8.16e2 <p styl…       401142
##  5 2019… 0.0-2.0-0.2             75 1.12e3 <p styl…       404260
##  6 2019… 0.0-2.0-0.3             68 8.34e2 <p styl…       406947
##  7 2019… 0.0-2.0-0.4             74 1.06e3 <p styl…       408927
##  8 2019… 0.0-2.0-0.5             74 1.15e3 <p styl…       411447
##  9 2019… 0.0-2.0-0.6             75 7.51e2 <p styl…       412857
## 10 2019… 0.0-2.0-0.7             70 8.04e2 <p styl…       414985
## # … with 47 more rows, and 5 more variables: trial_index <int>,
## #   trial_type <chr>, correct <lgl>, response <chr>, stim_type <chr>

これでOKな気もしますが，不要な変数がいくつかありますし，教示などの参加者の反応が入ってないデータも不要だったりしますので，整形作業が必要です。まずは，その後の解析で使うであろうID,trial_index,stim_type,response,correct,rtのみを，tidyverseのselect()関数を使って選択します。なお，ここで“%>%”というなぞのコマンドがでてきましたが，これはパイプ演算子です(tidyverseパッケージを読み込むと使えます)。“A %>% B”は，Aを関数Bの第１引数（多くの関数の場合，データ）にいれるという意味です。大した機能ではなさそうですが，処理を重ねる場合に，関数から関数にデータを引き継いで処理が書けるので，わかりやすくかけるというメリットがあります（最後にその例を示します）。

db_df4 <-db_df3 %>% 
  select(ID,trial_index,stim_type,response,correct,rt)
db_df4

## # A tibble: 57 x 6
##    ID                       trial_index stim_type   response correct     rt
##    <chr>                          <int> <chr>       <chr>    <lgl>    <dbl>
##  1 2019_8_22_23_48_59_fxlm…           0 <NA>        <NA>     NA      3.90e5
##  2 2019_8_22_23_48_59_fxlm…           1 <NA>        <NA>     NA      7.18e3
##  3 2019_8_22_23_48_59_fxlm…           2 congruent   d        TRUE    7.06e2
##  4 2019_8_22_23_48_59_fxlm…           3 congruent   d        TRUE    8.16e2
##  5 2019_8_22_23_48_59_fxlm…           4 incongruent k        TRUE    1.12e3
##  6 2019_8_22_23_48_59_fxlm…           5 congruent   d        TRUE    8.34e2
##  7 2019_8_22_23_48_59_fxlm…           6 incongruent j        TRUE    1.06e3
##  8 2019_8_22_23_48_59_fxlm…           7 incongruent j        TRUE    1.15e3
##  9 2019_8_22_23_48_59_fxlm…           8 incongruent k        TRUE    7.51e2
## 10 2019_8_22_23_48_59_fxlm…           9 incongruent f        TRUE    8.04e2
## # … with 47 more rows

trial_indexの0はウェルカムメッセージ，1は教示，18は課題終了の教示です。これらは不要ですので，tidyverseのfilter()関数を使って除外します(filter関数は特定の条件のデータを残す関数ですが，!=と指定すれば，該当するデータを除外してくれます)。

db_df5 <-db_df4 %>% 
  filter(trial_index !=0) %>%　#ウェルカムメッセージは不要 
  filter(trial_index !=1) %>%  #教示は不要
  filter(trial_index !=18)     #最後の教示も不要
db_df5

## # A tibble: 48 x 6
##    ID                         trial_index stim_type  response correct    rt
##    <chr>                            <int> <chr>      <chr>    <lgl>   <dbl>
##  1 2019_8_22_23_48_59_fxlmh9…           2 congruent  d        TRUE     706.
##  2 2019_8_22_23_48_59_fxlmh9…           3 congruent  d        TRUE     816.
##  3 2019_8_22_23_48_59_fxlmh9…           4 incongrue… k        TRUE    1119.
##  4 2019_8_22_23_48_59_fxlmh9…           5 congruent  d        TRUE     834.
##  5 2019_8_22_23_48_59_fxlmh9…           6 incongrue… j        TRUE    1056.
##  6 2019_8_22_23_48_59_fxlmh9…           7 incongrue… j        TRUE    1151.
##  7 2019_8_22_23_48_59_fxlmh9…           8 incongrue… k        TRUE     751.
##  8 2019_8_22_23_48_59_fxlmh9…           9 incongrue… f        TRUE     804.
##  9 2019_8_22_23_48_59_fxlmh9…          10 congruent  d        TRUE     768.
## 10 2019_8_22_23_48_59_fxlmh9…          11 incongrue… j        TRUE    1206.
## # … with 38 more rows

よく見たら，正誤の変数のcorrectは，TRUE・FALSEになっていますね。そこで，tidyverseのmutate()関数を使って，TRUE・FALSE型を数値型にした変数を別途作ります(mutate()関数は変数を作成するときに使えます)。

db_df6 <-db_df5 %>%
  mutate(correct2 = as.numeric(correct))
  
db_df6

## # A tibble: 48 x 7
##    ID                trial_index stim_type  response correct    rt correct2
##    <chr>                   <int> <chr>      <chr>    <lgl>   <dbl>    <dbl>
##  1 2019_8_22_23_48_…           2 congruent  d        TRUE     706.        1
##  2 2019_8_22_23_48_…           3 congruent  d        TRUE     816.        1
##  3 2019_8_22_23_48_…           4 incongrue… k        TRUE    1119.        1
##  4 2019_8_22_23_48_…           5 congruent  d        TRUE     834.        1
##  5 2019_8_22_23_48_…           6 incongrue… j        TRUE    1056.        1
##  6 2019_8_22_23_48_…           7 incongrue… j        TRUE    1151.        1
##  7 2019_8_22_23_48_…           8 incongrue… k        TRUE     751.        1
##  8 2019_8_22_23_48_…           9 incongrue… f        TRUE     804.        1
##  9 2019_8_22_23_48_…          10 congruent  d        TRUE     768.        1
## 10 2019_8_22_23_48_…          11 incongrue… j        TRUE    1206.        1
## # … with 38 more rows
上書きしなようにすると，db_dfが6まで増えてしまいました。ここで，“%>%”が役に立ちます。関数を何度も使って処理を重ねていく場合に，以下のように“%>%”でつないでいくと，一気にまとめて処理できますし，見た目も何をしているかわかりやすいです。なにか処理をした場合に，#を使ってコメントを残しておくとわかりやすいです。なお，mutate関数の位置を少し変えて，select関数適用後にlogical型のcorrectが残らないように変更しています。

db_df <- db_list %>% 
  as_tibble(validate = F) %>%  #データフレーム化
  gather(ID, data) %>% 　　　　#ロング化
  unnest() %>% 　　　　　　　　#ネストやめる
  mutate(correct2 = as.numeric(correct)) %>%  #正誤反応はlogical型からnumeric型に
  select(ID,trial_index,stim_type,response,correct2,rt) %>%　#使う変数選択 
  filter(trial_index !=0) %>%　#ウェルカムメッセージを除外 
  filter(trial_index !=1) %>%  #教示を除外
  filter(trial_index !=18)     #終了時の教示を除外

db_df

## # A tibble: 48 x 6
##    ID                        trial_index stim_type  response correct2    rt
##    <chr>                           <int> <chr>      <chr>       <dbl> <dbl>
##  1 2019_8_22_23_48_59_fxlmh…           2 congruent  d               1  706.
##  2 2019_8_22_23_48_59_fxlmh…           3 congruent  d               1  816.
##  3 2019_8_22_23_48_59_fxlmh…           4 incongrue… k               1 1119.
##  4 2019_8_22_23_48_59_fxlmh…           5 congruent  d               1  834.
##  5 2019_8_22_23_48_59_fxlmh…           6 incongrue… j               1 1056.
##  6 2019_8_22_23_48_59_fxlmh…           7 incongrue… j               1 1151.
##  7 2019_8_22_23_48_59_fxlmh…           8 incongrue… k               1  751.
##  8 2019_8_22_23_48_59_fxlmh…           9 incongrue… f               1  804.
##  9 2019_8_22_23_48_59_fxlmh…          10 congruent  d               1  768.
## 10 2019_8_22_23_48_59_fxlmh…          11 incongrue… j               1 1206.
## # … with 38 more rows
…
fileNamesに格納されているファイルの数から参加者数を確認します。lengthでデータの長さ（ここでは，fileNamesに含まれるデータの個数）がわかります。今回は，４個のデータが入っています。

numberSubject <- length(fileNames)
print(numberSubject)

## [1] 4

sub01のデータを読み込んでみる

では，早速，sub01.csvを読み込んでみましょう！tidyverseに入っているreadrパッケージのread_csv()でcsvファイルが読み込めます。そして，読み込むファイル名は，fileNamesに格納されているのものの１つ目（つまり，sub01）です。

sub01 <- read_csv(paste(workDir, "Data",fileNames[1], sep = "/"))
sub01

## # A tibble: 122 x 8
##       rt key_press trial_type trial_index time_elapsed internal_node_id
##    <dbl>     <dbl> <chr>            <dbl>        <dbl> <chr>           
##  1  8693        32 text                 0         8697 0.0-0.0         
##  2  1194        90 categorize           1        12904 0.0-1.0-0.0     
##  3   316        90 categorize           2        16231 0.0-1.0-1.0     
##  4   313        90 categorize           3        19552 0.0-1.0-2.0     
##  5   352        77 categorize           4        22911 0.0-1.0-3.0     
##  6   450        90 categorize           5        26367 0.0-1.0-4.0     
##  7   298        90 categorize           6        29672 0.0-1.0-5.0     
##  8   305        90 categorize           7        32985 0.0-1.0-6.0     
##  9   197        90 categorize           8        36193 0.0-1.0-7.0     
## 10   296        90 categorize           9        39495 0.0-1.0-8.0     
## # … with 112 more rows, and 2 more variables: correct <lgl>,
## #   stimulus <chr>
…
上記のsub01のデータの解析で必要なのは，rt（反応時間）, key_press（押したキー），trial_index(試行番号)，correct（正誤）になります。また，trial_typeでは，categorizeのデータだけが欲しい（textは教示なので，いらない）。このようなデータの整理では，tidyverseのdplyrパッケージを使います。ここで，%>%というパイプ演算子というものがでてきます。これは，%>%の左(or前)のものが，次にくる関数の第一引数に入ることを意味します（例えば，上のlength(fileNames)の場合，length()関数の第一引数は，ファイル名リストのfileNamesになります）。

具体的な操作は以下になります。(1)まず，filterで，trial_typeが“categorize”なものにしぼります。(2)key_pressは，90だと紫の選択，77だと緑の選択になります。90と77だと扱いにくいので，90は1，77は0に変換します。ifelse(key_press == 90, 1,0)を使って，90なら1，それ以外は0になるようにして，mutateの新しい変数rewardを作成します（mutateは，新しい変数を作成する関数です）。(3)correctは，true,falseになるのですが，これも扱いにくいので，trueは1,falseは0にします。as.numeric(as.logical(correct))を使って，論理値にした上で，数値型に変換します。これもmutateを使って新たにrewardという名前を付けます。(4)この段階で，key_press, trial_type, time_elapsed, internal_node_id, correct, stimulusが要らなくなりました。selectを使って，不要な変数にマイナスをつけて除外します。(5)最後に，renameを使ってtrial_indexをnoに変更します。

# データの整理
sub01 <- sub01 %>% 
  filter(trial_type=="categorize") %>% 
  mutate(choice = ifelse(key_press == 90, 1,0)) %>%
  mutate(reward = as.numeric(as.logical(correct))) %>% 
  select(-key_press, -trial_type, -time_elapsed, -internal_node_id, -correct, -stimulus) %>% 
  rename(no = trial_index) 
# データの確認
sub01

## # A tibble: 120 x 4
##       rt    no choice reward
##    <dbl> <dbl>  <dbl>  <dbl>
##  1  1194     1      1      1
##  2   316     2      1      1
##  3   313     3      1      0
##  4   352     4      0      0
##  5   450     5      1      1
##  6   298     6      1      1
##  7   305     7      1      1
##  8   197     8      1      1
##  9   296     9      1      0
## 10   346    10      0      1
## # … with 110 more rows
…
  # 上記とほぼ同じ操作をする（最後にデータ数分id番号を追加しています）
  tempData <- tempData %>%
    filter(trial_type=="categorize") %>% 
    mutate(choice = ifelse(key_press == 90, 1,0)) %>%
    mutate(reward = as.numeric(as.logical(correct))) %>% 
    select(-key_press, -trial_type, -time_elapsed, -internal_node_id, -correct, -stimulus) %>% 
    rename(no = trial_index) %>% 
    mutate(id = rep(i,length(rt)))
  #データの結合
  analysisData = rbind(analysisData, tempData)
}
# データの確認
analysisData

## # A tibble: 480 x 5
##       rt    no choice reward    id
##    <dbl> <dbl>  <dbl>  <dbl> <int>
##  1  1194     1      1      1     1
##  2   316     2      1      1     1
##  3   313     3      1      0     1
##  4   352     4      0      0     1
##  5   450     5      1      1     1
##  6   298     6      1      1     1
##  7   305     7      1      1     1
##  8   197     8      1      1     1
##  9   296     9      1      0     1
## 10   346    10      0      1     1
## # … with 470 more rows
…
