ネットワークメタ分析
…
sampleSize <- c(20251,65,159,85,135,10396,63,13780,130,107,3004,149,50,58,53,45,99,41,421,44,200,56,155,4921,8488,55,94,573,75,69,61,419,782,81,226,66,10396,64,157,86,135,10372,59,13746,123,109,3006,152,50,54,47,42,101,46,429,46,195,47,169,10138,8461,55,95,565,75,71,62,421,790,81,225,71,10374)

baseline <- c(0,0,0,0,0,0,0,0,0,0,0,0,0,0,0,0,0,0,0,1,1,1,2,2,2,2,2,2,2,2,2,2,2,2,2,2,0,0,0,0,0,0,0,0,0,0,0,0,0,0,0,0,0,0,0,1,1,1,2,2,2,2,2,2,2,2,2,2,2,2,2,2,0)

treatmentName <- c("SK","SK","SK","SK","SK","SK","SK","SK","SK","SK","SK","SK","SK","SK","SK","SK","SK","SK","SK","t_PA","t_PA","t_PA","Acc_t_PA","Acc_t_PA","Acc_t_PA","Acc_t_PA","Acc_t_PA","Acc_t_PA","Acc_t_PA","Acc_t_PA","Acc_t_PA","Acc_t_PA","Acc_t_PA","Acc_t_PA","Acc_t_PA","Acc_t_PA","Acc_t_PA","t_PA","t_PA","t_PA","t_PA","t_PA","t_PA","t_PA","t_PA","SK_t_PA","r_PA","PTCA","PTCA","PTCA","PTCA","PTCA","PTCA","PTCA","PTCA","PTCA","PTCA","PTCA","r_PA","r_PA","TNK","PTCA","PTCA","PTCA","PTCA","PTCA","PTCA","PTCA","PTCA","PTCA","PTCA","PTCA","SK_t_PA")

studyName <- c("GUSTO-1","ECSG","TIMI-1","PAIMS","White","GISSI-2","Cherng","ISIS-3","CI","KAMIT","INJECT","Zijlstra","Riberio","Grinfeld","Zijlstra","Akhras","Widimsky","DeBoer","Widimsky","DeWood","Grines","Gibbons","RAPID-2","GUSTO-3","ASSENT-2","Ribichini","Garcia","GUSTO-2","Vermeer","Schomig","LeMay","Bonnefoy","Andersen","Kastrati","Aversano","Grines","GUSTO-1","ECSG","TIMI-1","PAIMS","White","GISSI-2","Cherng","ISIS-3","CI","KAMIT","INJECT","Zijlstra","Riberio","Grinfeld","Zijlstra","Akhras","Widimsky","DeBoer","Widimsky","DeWood","Grines","Gibbons","RAPID-2","GUSTO-3","ASSENT-2","Ribichini","Garcia","GUSTO-2","Vermeer","Schomig","LeMay","Bonnefoy","Andersen","Kastrati","Aversano","Grines","GUSTO-1")

studyYear <- c(1993,1985,1987,1989,1989,1990,1992,1992,1993,1991,1995,1993,1993,1996,1997,1997,2000,2002,2002,1990,1993,1993,1996,1997,1999,1996,1997,1997,1999,2000,2001,2002,2002,2002,2002,2002,1993,1985,1987,1989,1989,1990,1992,1992,1993,1991,1995,1993,1993,1996,1997,1997,2000,2002,2002,1990,1993,1993,1996,1997,1999,1996,1997,1997,1999,2000,2001,2002,2002,2002,2002,2002,1993)

# データフレームにして確認
data_net <- tibble(study,treatment,dead,sampleSize,baseline,treatmentName,studyName,studyYear)
data_net

## # A tibble: 73 x 8
##    study treatment  dead sampleSize baseline treatmentName studyName studyYear
##    <dbl>     <dbl> <dbl>      <dbl>    <dbl> <chr>         <chr>         <dbl>
##  1     1         0  1472      20251        0 SK            GUSTO-1        1993
##  2     2         0     3         65        0 SK            ECSG           1985
##  3     3         0    12        159        0 SK            TIMI-1         1987
##  4     4         0     7         85        0 SK            PAIMS          1989
##  5     5         0    10        135        0 SK            White          1989
##  6     6         0   887      10396        0 SK            GISSI-2        1990
##  7     7         0     5         63        0 SK            Cherng         1992
##  8     8         0  1455      13780        0 SK            ISIS-3         1992
##  9     9         0     9        130        0 SK            CI             1993
## 10    10         0     4        107        0 SK            KAMIT          1991
## # … with 63 more rows
…
