強化学習モデル2
…
parameter_recovery_mle <- data.frame(alpha_true = alpha_true[1:length(alpha_estimated)],
                                     beta_true = beta_true[1:length(alpha_estimated)],
                                     alpha_estimated = alpha_estimated[1:length(alpha_estimated)],
                                     beta_estimated = beta_estimated[1:length(alpha_estimated)])
parameter_recovery_mle

## # A tibble: 100 x 4
##    alpha_true beta_true alpha_estimated beta_estimated
##         <dbl>     <dbl>           <dbl>          <dbl>
##  1      0.1         0.5          0.383           0.651
##  2      0.2         0.5          0.102           1.39 
##  3      0.3         0.5          0.990           0.390
##  4      0.4         0.5          0.0982          0.971
##  5      0.5         0.5          0.499           0.896
##  6      0.6         0.5          0.408           1.69 
##  7      0.7         0.5          0.419           0.691
##  8      0.80        0.5          0.898           0.525
##  9      0.900       0.5          0.307           0.319
## 10      1.00        0.5          0.728           0.746
## # … with 90 more rows
…
